Análisis cámaras 1-4
…
Genotipo

Cámara

Repetición

n, número plantas en la rep.

avg, media de esas plantas (días)

sd, desv standard del valor medio

Flor1, primera flor en la rep. (días)

## # A tibble: 128 x 7
##    Genotype Camara Repetition     n   avg    sd Flor1
##    <chr>    <chr>  <chr>      <int> <dbl> <dbl> <dbl>
##  1 Ca2139   C1     Rep1           8  79.8  9.51    65
##  2 Ca2139   C1     Rep2           9  90.7  8.43    77
##  3 Ca2139   C1     Rep3           8  95.8  6.82    81
##  4 Ca2139   C2     Rep1           9 102.   7.92    91
##  5 Ca2139   C2     Rep2           8 129.  43.9     98
##  6 Ca2139   C2     Rep3           6 170.  46.0    111
##  7 Ca2139   C3     Rep1           7 200    0      200
##  8 Ca2139   C3     Rep2           8 186.  41.0     84
##  9 Ca2139   C3     Rep3           9 185   45       65
## 10 Ca2139   C4     Rep1           7 131   47.2     97
## # … with 118 more rows
…
Caso Study 2

Primera flor por repetición :

by_reps %>% select(c(1:4,7))

## # A tibble: 128 x 5
##    Genotype Camara Repetition     n Flor1
##    <chr>    <chr>  <chr>      <int> <dbl>
##  1 Ca2139   C1     Rep1           8    65
##  2 Ca2139   C1     Rep2           9    77
##  3 Ca2139   C1     Rep3           8    81
##  4 Ca2139   C2     Rep1           9    91
##  5 Ca2139   C2     Rep2           8    98
##  6 Ca2139   C2     Rep3           6   111
##  7 Ca2139   C3     Rep1           7   200
##  8 Ca2139   C3     Rep2           8    84
##  9 Ca2139   C3     Rep3           9    65
## 10 Ca2139   C4     Rep1           7    97
## # … with 118 more rows
…
